<?xml version="1.0" encoding="utf-8"?>
<!-- Generator: Adobe Illustrator 23.0.4, SVG Export Plug-In . SVG Version: 6.00 Build 0)  -->
<svg version="1.1" id="Layer_1" xmlns="http://www.w3.org/2000/svg" xmlns:xlink="http://www.w3.org/1999/xlink" x="0px" y="0px"
	 viewBox="0 0 43 62" style="enable-background:new 0 0 43 62;" xml:space="preserve">
<style type="text/css">
	.st0{fill:#F5F5F5;}
	.st1{fill:#E5E5E5;}
	.st2{fill:#4CAF50;}
	.st3{fill:#FAFAFA;}
	.st4{fill:#FFFFFF;}
</style>
<g id="xlsx">
	<g transform="translate(-0.241608, -0.403052)">
		<g id="doc-copy-2">
			<polygon id="Path" class="st0" points="42.8,58.8 0,58.8 0,0 33.1,0 42.8,9.6 			"/>
			<polygon class="st1" points="33.1,0 33.1,9.6 42.8,9.6 			"/>
			<polygon class="st2" points="0,42.8 42.8,42.8 42.8,62 0,62 			"/>
		</g>
		<g id="excel" transform="translate(11.379196, 15.903344)">
			<g id="Group">
				<path class="st2" d="M11.3,0.1C11.2,0,11.1,0,11,0L0.3,2.5C0.1,2.5,0,2.7,0,2.9v14c0,0.2,0.1,0.4,0.3,0.4L11,18.9
					c0.2,0,0.4-0.1,0.5-0.3c0,0,0,0,0-0.1V0.4C11.5,0.3,11.4,0.2,11.3,0.1z"/>
				<path class="st2" d="M19.3,17.3h-8.2c-0.2,0-0.4-0.2-0.4-0.4c0-0.2,0.2-0.4,0.4-0.4h7.8v-14h-7.8c-0.2,0-0.4-0.2-0.4-0.4
					s0.2-0.4,0.4-0.4h8.2c0.2,0,0.4,0.2,0.4,0.4v14.8C19.7,17.1,19.5,17.3,19.3,17.3z"/>
			</g>
			<g transform="translate(3.271818, 5.735305)">
				<path class="st3" d="M4.5,7.4c-0.1,0-0.3-0.1-0.3-0.2L0.1,0.7C-0.1,0.5,0,0.2,0.2,0.1S0.6,0,0.8,0.2c0,0,0,0,0,0l4.1,6.6
					C5,7,4.9,7.2,4.7,7.4C4.7,7.4,4.6,7.4,4.5,7.4z"/>
				<path class="st3" d="M0.4,7.4C0.2,7.4,0,7.2,0,7c0-0.1,0-0.2,0.1-0.2l4.1-6.6C4.3,0,4.5,0,4.7,0.1C4.9,0.2,5,0.4,4.9,0.6
					c0,0,0,0,0,0L0.8,7.2C0.7,7.4,0.6,7.4,0.4,7.4z"/>
			</g>
			<g transform="translate(10.662278, 1.655155)">
				<path class="st2" d="M3.7,15.6c-0.2,0-0.4-0.2-0.4-0.4V0.4C3.3,0.2,3.5,0,3.7,0c0.2,0,0.4,0.2,0.4,0.4v14.8
					C4.1,15.4,3.9,15.6,3.7,15.6z"/>
				<path class="st2" d="M8.6,13.2H0.4C0.2,13.2,0,13,0,12.7c0-0.2,0.2-0.4,0.4-0.4h8.2c0.2,0,0.4,0.2,0.4,0.4
					C9,13,8.9,13.2,8.6,13.2z"/>
				<path class="st2" d="M8.6,10.7H0.4c-0.2,0-0.4-0.2-0.4-0.4c0-0.2,0.2-0.4,0.4-0.4h8.2c0.2,0,0.4,0.2,0.4,0.4
					C9,10.5,8.9,10.7,8.6,10.7z"/>
				<path class="st2" d="M8.6,8.2H0.4C0.2,8.2,0,8,0,7.8c0-0.2,0.2-0.4,0.4-0.4h8.2C8.9,7.4,9,7.6,9,7.8C9,8,8.9,8.2,8.6,8.2z"/>
				<path class="st2" d="M8.6,5.8H0.4C0.2,5.8,0,5.6,0,5.4c0-0.2,0.2-0.4,0.4-0.4h8.2C8.9,4.9,9,5.1,9,5.4C9,5.6,8.9,5.8,8.6,5.8z"
					/>
				<path class="st2" d="M8.6,3.3H0.4C0.2,3.3,0,3.1,0,2.9c0-0.2,0.2-0.4,0.4-0.4h8.2C8.9,2.5,9,2.7,9,2.9C9,3.1,8.9,3.3,8.6,3.3z"
					/>
			</g>
		</g>
		<path id="XLSX" class="st4" d="M12.6,56.4c0.2,0.2,0.2,0.4,0.2,0.6c0,0.2-0.1,0.4-0.3,0.6c-0.2,0.2-0.4,0.3-0.6,0.3
			c-0.2,0-0.5-0.1-0.7-0.3l-3-3.8l-3,3.8c-0.2,0.2-0.4,0.3-0.6,0.3c-0.2,0-0.4-0.1-0.6-0.3s-0.3-0.4-0.3-0.6c0-0.2,0.1-0.4,0.2-0.6
			l3.2-4l-3.1-3.8c-0.1-0.2-0.2-0.3-0.2-0.6c0-0.2,0.1-0.4,0.3-0.6c0.2-0.2,0.4-0.3,0.6-0.3c0.2,0,0.5,0.1,0.7,0.3l2.9,3.6l2.9-3.6
			c0.2-0.2,0.4-0.3,0.6-0.3c0.2,0,0.4,0.1,0.6,0.3c0.2,0.2,0.3,0.4,0.3,0.6c0,0.2,0,0.3-0.1,0.5l-3.2,3.9L12.6,56.4z M14.9,57.7
			c-0.3,0-0.5-0.1-0.7-0.2S14,57.1,14,56.8v-8.7c0-0.3,0.1-0.5,0.3-0.7c0.2-0.2,0.4-0.3,0.7-0.3c0.3,0,0.5,0.1,0.7,0.3
			c0.2,0.2,0.3,0.4,0.3,0.7v8h4.2c0.6,0,0.9,0.3,0.9,0.8s-0.3,0.8-0.9,0.8H14.9z M25.3,57.9c-0.8,0-1.5-0.1-2.2-0.3
			s-1.2-0.5-1.7-0.8c-0.2-0.2-0.3-0.4-0.3-0.7c0-0.2,0.1-0.4,0.2-0.5s0.3-0.2,0.4-0.2c0.2,0,0.4,0.1,0.6,0.2
			c0.4,0.3,0.9,0.5,1.3,0.7c0.5,0.1,1,0.2,1.5,0.2c0.7,0,1.3-0.1,1.7-0.4c0.4-0.3,0.6-0.6,0.6-1.1c0-0.4-0.2-0.7-0.5-0.9
			c-0.3-0.2-0.8-0.4-1.5-0.5l-0.3-0.1c-0.9-0.2-1.6-0.4-2.1-0.7c-0.5-0.2-1-0.6-1.2-1s-0.4-0.9-0.4-1.5c0-0.6,0.2-1.2,0.5-1.7
			c0.3-0.5,0.8-0.9,1.5-1.1c0.6-0.3,1.3-0.4,2.1-0.4c1.4,0,2.6,0.4,3.5,1.1c0.1,0.1,0.2,0.2,0.3,0.3c0.1,0.1,0.1,0.2,0.1,0.4
			c0,0.2-0.1,0.4-0.2,0.5s-0.3,0.2-0.4,0.2c-0.1,0-0.2,0-0.3,0s-0.2-0.1-0.3-0.2c-0.4-0.3-0.8-0.5-1.2-0.7c-0.4-0.1-0.9-0.2-1.4-0.2
			c-0.7,0-1.2,0.1-1.6,0.4s-0.6,0.7-0.6,1.1c0,0.4,0.2,0.7,0.5,0.9c0.3,0.2,0.8,0.4,1.5,0.5l0.3,0.1c0.9,0.2,1.6,0.4,2.2,0.7
			c0.6,0.2,1,0.6,1.3,0.9c0.3,0.4,0.4,0.8,0.4,1.4c0,0.6-0.2,1.2-0.5,1.6c-0.3,0.5-0.8,0.8-1.4,1.1C26.8,57.7,26.1,57.9,25.3,57.9z
			 M38.8,56.4c0.2,0.2,0.2,0.4,0.2,0.6c0,0.2-0.1,0.4-0.3,0.6s-0.4,0.3-0.6,0.3c-0.2,0-0.5-0.1-0.7-0.3l-3-3.8l-3,3.8
			c-0.2,0.2-0.4,0.3-0.6,0.3c-0.2,0-0.4-0.1-0.6-0.3c-0.2-0.2-0.3-0.4-0.3-0.6c0-0.2,0.1-0.4,0.2-0.6l3.2-4l-3.1-3.8
			C30.1,48.4,30,48.3,30,48c0-0.2,0.1-0.4,0.3-0.6c0.2-0.2,0.4-0.3,0.6-0.3c0.2,0,0.5,0.1,0.7,0.3l2.9,3.6l2.9-3.6
			c0.2-0.2,0.4-0.3,0.6-0.3c0.2,0,0.4,0.1,0.6,0.3c0.2,0.2,0.3,0.4,0.3,0.6c0,0.2,0,0.3-0.1,0.5l-3.2,3.9L38.8,56.4z"/>
	</g>
</g>
</svg>
